text_analysis
…
tidy_bob

11

This entire left_join dataset simply creates an episode number that isn’t broken up by season

12

Removes the dialogue and raw_text columns

13

This function tokenizes our data into a tidy format

#> # A tibble: 1,127,930 × 6
#>    season episode title        line episode_seq word  
#>     <dbl>   <dbl> <chr>       <dbl>       <int> <chr> 
#>  1      1       1 Human Flesh     4           1 listen
#>  2      1       1 Human Flesh     4           1 pep   
#>  3      1       1 Human Flesh     4           1 talk  
#>  4      1       1 Human Flesh     5           1 big   
#>  5      1       1 Human Flesh     5           1 day   
#>  6      1       1 Human Flesh     5           1 today 
#>  7      1       1 Human Flesh     6           1 it    
#>  8      1       1 Human Flesh     6           1 is    
#>  9      1       1 Human Flesh     6           1 our   
#> 10      1       1 Human Flesh     6           1 grand 
#> # ℹ 1,127,920 more rows

Stop Words

As you might imagine, most words that appear in a corpus of text are going to be fairly boring and (depending on the analysis) not very insightful. These are what’s known as stop words.

data(stop_words)
stop_words

#> # A tibble: 1,149 × 2
#>    word        lexicon
#>    <chr>       <chr>  
#>  1 a           SMART  
#>  2 a's         SMART  
#>  3 able        SMART  
#>  4 about       SMART  
#>  5 above       SMART  
#>  6 according   SMART  
#>  7 accordingly SMART  
#>  8 across      SMART  
#>  9 actually    SMART  
#> 10 after       SMART  
#> # ℹ 1,139 more rows
…
#> # A tibble: 3 × 2
#>   lexicon      n
#>   <chr>    <int>
#> 1 SMART      571
#> 2 onix       404
#> 3 snowball   174

Removing Stop Words

tidy_bob <- tidy_bob |> 
  anti_join(stop_words)

tidy_bob

#> # A tibble: 355,240 × 6
#>    season episode title        line episode_seq word         
#>     <dbl>   <dbl> <chr>       <dbl>       <int> <chr>        
#>  1      1       1 Human Flesh     4           1 listen       
#>  2      1       1 Human Flesh     4           1 pep          
#>  3      1       1 Human Flesh     4           1 talk         
#>  4      1       1 Human Flesh     5           1 day          
#>  5      1       1 Human Flesh     6           1 grand        
#>  6      1       1 Human Flesh     6           1 rerereopening
#>  7      1       1 Human Flesh     7           1 labor        
#>  8      1       1 Human Flesh     7           1 day          
#>  9      1       1 Human Flesh     7           1 weekend      
#> 10      1       1 Human Flesh     7           1 wharf        
#> # ℹ 355,230 more rows

For our purposes today we’ll be removing stop words but know that stop words are not (always) just filler. They contain (low-level) information and depending upon the goal of your research, they may help inform your subsequent analyses.

Term Frequency

The most basic statistic we can derive after these preliminary steps is calculating which words are used most often in our data.

tidy_bob |> 
14  count(word, sort = TRUE)

14

This is the same as group_by(word) |> summarise(n = n()) |> arrange(desc(n))

#> # A tibble: 25,814 × 2
#>    word       n
#>    <chr>  <int>
#>  1 yeah    6444
#>  2 uh      5320
#>  3 gonna   4687
#>  4 bob     3576
#>  5 tina    3157
#>  6 hey     2787
#>  7 gene    2557
#>  8 wait    2314
#>  9 god     2235
#> 10 louise  2002
#> # ℹ 25,804 more rows
…
1

Required to download the AFINN and bing datasets

AFINN
bing
nrc

2get_sentiments("afinn")

2

Scale from -5 to 5 delineating most negative to most positive

#> # A tibble: 2,477 × 2
#>    word       value
#>    <chr>      <dbl>
#>  1 abandon       -2
#>  2 abandoned     -2
#>  3 abandons      -2
#>  4 abducted      -2
#>  5 abduction     -2
#>  6 abductions    -2
#>  7 abhor         -3
#>  8 abhorred      -3
#>  9 abhorrent     -3
#> 10 abhors        -3
#> # ℹ 2,467 more rows

3get_sentiments("bing")

3

Binary categorization of positive/negative

#> # A tibble: 6,786 × 2
#>    word        sentiment
#>    <chr>       <chr>    
#>  1 2-faces     negative 
#>  2 abnormal    negative 
#>  3 abolish     negative 
#>  4 abominable  negative 
#>  5 abominably  negative 
#>  6 abominate   negative 
#>  7 abomination negative 
#>  8 abort       negative 
#>  9 aborted     negative 
#> 10 aborts      negative 
#> # ℹ 6,776 more rows

4get_sentiments("nrc")

4

Categorizations of positive, negative, anger, anticipation, disgust, fear, joy, sadness, surprise, and trust

#> # A tibble: 13,872 × 2
#>    word        sentiment
#>    <chr>       <chr>    
#>  1 abacus      trust    
#>  2 abandon     fear     
#>  3 abandon     negative 
#>  4 abandon     sadness  
#>  5 abandoned   anger    
#>  6 abandoned   fear     
#>  7 abandoned   negative 
#>  8 abandoned   sadness  
#>  9 abandonment anger    
#> 10 abandonment fear     
#> # ℹ 13,862 more rows
…
Most documents will have a lot of some words and not very many of much fewer words

1season_words <- clean_bob |>
  select(season, cleaned_text) |>
  unnest_tokens(word, cleaned_text) |>
  count(season, word, sort = TRUE)

season_words

1

Gets the count of each word by season

#> # A tibble: 83,633 × 3
#>    season word      n
#>     <dbl> <chr> <int>
#>  1     13 i      4024
#>  2     12 i      3886
#>  3     11 i      3832
#>  4     10 i      3816
#>  5      8 i      3573
#>  6      7 i      3527
#>  7      4 i      3476
#>  8      9 i      3407
#>  9      5 i      3406
#> 10      3 i      3385
#> # ℹ 83,623 more rows
…
So far we’ve been looking at term frequency (tf)

Another approach is to look at a term’s inverse document frequency (idf), which decreases the weight for commonly used words and increases the weight for words that are not used very much in a collection of documents

This can be combined with term frequency to calculate a term’s tf-idf (the two quantities multiplied together), which is the frequency of a term adjusted for how rarely it is used

library(topicmodels)

season_tf_idf <- season_words |> 
  bind_tf_idf(word, season, n)

season_tf_idf

#> # A tibble: 83,633 × 7
#>    season word      n total     tf   idf tf_idf
#>     <dbl> <chr> <int> <int>  <dbl> <dbl>  <dbl>
#>  1     13 i      4024 97133 0.0414     0      0
#>  2     12 i      3886 97485 0.0399     0      0
#>  3     11 i      3832 95939 0.0399     0      0
#>  4     10 i      3816 94967 0.0402     0      0
#>  5      8 i      3573 90281 0.0396     0      0
#>  6      7 i      3527 90347 0.0390     0      0
#>  7      4 i      3476 86537 0.0402     0      0
#>  8      9 i      3407 92870 0.0367     0      0
#>  9      5 i      3406 85996 0.0396     0      0
#> 10      3 i      3385 84253 0.0402     0      0
#> # ℹ 83,623 more rows

Highest tf-idf by Season

Ranked Data
Code
Bar Chart

season_tf_idf |> 
  select(-total) |> 
  arrange(desc(tf_idf))

#> # A tibble: 83,633 × 6
#>    season word            n       tf   idf  tf_idf
#>     <dbl> <chr>       <int>    <dbl> <dbl>   <dbl>
#>  1      1 ok             66 0.00149   1.54 0.00229
#>  2      2 beefsquatch    23 0.000721  2.64 0.00190
#>  3     14 cricket        37 0.000647  2.64 0.00171
#>  4      2 rodney         16 0.000502  2.64 0.00132
#>  5      9 clem           45 0.000485  2.64 0.00128
#>  6     10 wharfy         43 0.000453  2.64 0.00119
#>  7     12 purrbo         42 0.000431  2.64 0.00114
#>  8      8 bleaken        38 0.000421  2.64 0.00111
#>  9      1 torpedo        31 0.000700  1.54 0.00108
#> 10      2 hanky          13 0.000407  2.64 0.00108
#> # ℹ 83,623 more rows
…
nested_eps 

1

Adds the count, n, for each word; equivalent to group_by(word) |> mutate(n = n())

2

Keep only words that occur at least 50 times

3

nest creates a list-column; in this case, a dataframe of all words that occurred by each episode

#> # A tibble: 272 × 2
#>    episode_seq words             
#>          <int> <list>            
#>  1           1 <tibble [703 × 1]>
#>  2           2 <tibble [768 × 1]>
#>  3           3 <tibble [680 × 1]>
#>  4           4 <tibble [778 × 1]>
#>  5           5 <tibble [664 × 1]>
#>  6           6 <tibble [792 × 1]>
#>  7           7 <tibble [694 × 1]>
#>  8           8 <tibble [714 × 1]>
#>  9           9 <tibble [642 × 1]>
#> 10          10 <tibble [843 × 1]>
#> # ℹ 262 more rows

What do these nested tibbles look like? Let’s look at words from episode 1:

nested_eps[1, 2][[1]]

#> [[1]]
#> # A tibble: 703 × 1
#>    word   
#>    <chr>  
#>  1 listen 
#>  2 talk   
#>  3 day    
#>  4 day    
#>  5 weekend
#>  6 wharf  
#>  7 day    
#>  8 reason 
#>  9 linda  
#> 10 middle 
#> # ℹ 693 more rows
…
21

Unnests the words column so it is no longer an embedded list per episode but instead we have a tibble with columns for episode_seq, word, and window_id. Instead of 272 rows (1 row for each episode) we now have 925,280 rows (1 row for each word in a skip-gram window for all 272 episodes)

22

Overwrites the window_id column to be a combination of episode_seq and window_id, separated by _

23

Uses each instance of a word and its associated window_id to calculate the logarithm of probability of finding two words together, normalized by the probability of finding each of the words alone.

tidy_pmi

#> # A tibble: 420,500 × 3
#>    item1   item2      pmi
#>    <chr>   <chr>    <dbl>
#>  1 talk    listen  0.773 
#>  2 day     listen -0.224 
#>  3 weekend listen  0.0570
#>  4 wharf   listen -0.490 
#>  5 reason  listen  0.801 
#>  6 linda   listen  0.110 
#>  7 middle  listen -1.46  
#>  8 ahead   listen -1.10  
#>  9 sell    listen  0.676 
#> 10 burgers listen -0.322 
#> # ℹ 420,490 more rows
…
Takes our tidy_pmi table, turns it into a wide matrix, and performs dimensionality reduction on it, and returns it in tidy format

25

item1 serves as the item we want to perform dimensionality reduction on, item2 is the feature that links items to one another, and pmi is the value we’re reducing

26

Number of principle components to estimate

27

Optional argument specifying the maximum number of iterations

#> # A tibble: 116,600 × 3
#>    item1   dimension    value
#>    <chr>       <dbl>    <dbl>
#>  1 talk            1  0.0273 
#>  2 day             1  0.0487 
#>  3 weekend         1 -0.0351 
#>  4 wharf           1 -0.0366 
#>  5 reason          1 -0.0341 
#>  6 linda           1  0.0604 
#>  7 middle          1 -0.0319 
#>  8 ahead           1 -0.0267 
#>  9 sell            1 -0.0293 
#> 10 burgers         1 -0.00294
#> # ℹ 116,590 more rows
…
28

This function will find the nearest words to any given example using our newly created word embeddings

This function takes the tidy word embeddings as input, along with a word (or token, more strictly) as a string. It uses matrix multiplication and sums to calculate the cosine similarity between the specified word and all the words in the embedding to find which words are closer or farther to the input word, and returns a dataframe sorted by similarity.

tidy_word_vectors |> 
  nearest_neighbors(
    "weird"
    )

#> # A tibble: 1,166 × 2
#>    item1  value
#>    <chr>  <dbl>
#>  1 weird  1    
#>  2 makes  0.348
#>  3 sounds 0.315
#>  4 bad    0.313
#>  5 crazy  0.303
#>  6 uhhuh  0.271
#>  7 hiding 0.259
#>  8 bobby  0.252
#>  9 pig    0.252
#> 10 havent 0.247
#> # ℹ 1,156 more rows

tidy_word_vectors |> 
  nearest_neighbors(
    "jimmy"
    )

#> # A tibble: 1,166 × 2
#>    item1  value
#>    <chr>  <dbl>
#>  1 jimmy  1    
#>  2 jr     0.596
#>  3 pesto  0.502
#>  4 zeke   0.398
#>  5 trev   0.375
#>  6 told   0.371
#>  7 pestos 0.356
#>  8 friend 0.291
#>  9 butt   0.267
#> 10 pizza  0.260
#> # ℹ 1,156 more rows

tidy_word_vectors |> 
  nearest_neighbors(
    "fart"
    )

#> # A tibble: 1,166 × 2
#>    item1   value
#>    <chr>   <dbl>
#>  1 fart    1    
#>  2 farts   0.417
#>  3 loud    0.377
#>  4 gas     0.339
#>  5 iii     0.329
#>  6 fire    0.323
#>  7 teeth   0.287
#>  8 notice  0.266
#>  9 turkeys 0.263
#> 10 pee     0.252
#> # ℹ 1,156 more rows
…
glove_word_vec <- 
29  glove(text = clean_bob$cleaned_text,
        dim = 100, 
        window = 4, 
        min_count = 50, 
        stopwords = stop_words$word, 
        composition = "tibble")

glove_word_vec

29

Global Vectors for Word Representation, aka GloVe

#> # A tibble: 1,166 × 101
#>    tokens         V1      V2      V3       V4      V5      V6      V7       V8
#>    <chr>       <dbl>   <dbl>   <dbl>    <dbl>   <dbl>   <dbl>   <dbl>    <dbl>
#>  1 aa         0.0849 -0.599   0.275  -0.233    0.0862 -0.104  -0.0301 -0.169  
#>  2 admit      0.718  -0.213  -0.211  -0.0504   0.508  -0.104  -0.0441  0.304  
#>  3 breaking  -0.131   0.569  -0.236  -0.00908  0.447  -0.302  -0.307   0.212  
#>  4 ceiling   -0.353  -0.346  -0.356  -0.418    0.0683 -0.0663  0.176  -0.183  
#>  5 character -0.158   0.423   0.889  -0.247    0.536   0.0749  0.138   0.902  
#>  6 cleaning   0.0753 -0.0813 -0.0965 -0.205   -0.260   0.207   0.933  -0.117  
#>  7 closet     0.0156  0.157   0.391  -0.566    0.188  -0.189   0.506   0.354  
#>  8 college   -0.301   0.312   0.138   0.219   -0.390   0.218  -0.428  -0.227  
#>  9 corn      -0.251  -0.313  -0.508  -0.470   -0.393   0.269  -0.130   0.0282 
#> 10 destroy    0.314   0.0674  0.642   0.161   -0.434  -0.0652  0.770   0.00947
#> # ℹ 1,156 more rows
#> # ℹ 92 more variables: V9 <dbl>, V10 <dbl>, V11 <dbl>, V12 <dbl>, V13 <dbl>,
#> #   V14 <dbl>, V15 <dbl>, V16 <dbl>, V17 <dbl>, V18 <dbl>, V19 <dbl>,
#> #   V20 <dbl>, V21 <dbl>, V22 <dbl>, V23 <dbl>, V24 <dbl>, V25 <dbl>,
#> #   V26 <dbl>, V27 <dbl>, V28 <dbl>, V29 <dbl>, V30 <dbl>, V31 <dbl>,
#> #   V32 <dbl>, V33 <dbl>, V34 <dbl>, V35 <dbl>, V36 <dbl>, V37 <dbl>,
#> #   V38 <dbl>, V39 <dbl>, V40 <dbl>, V41 <dbl>, V42 <dbl>, V43 <dbl>, …

Tidying our GloVe(s)

tidy_glove <- 
  glove_word_vec |> 
  pivot_longer(contains("V"),
               names_to = "dimension", 
               names_prefix = "V", 
               names_transform = list(dimension = as.integer)) |> 
  rename(item1 = tokens)

tidy_glove

#> # A tibble: 116,600 × 3
#>    item1 dimension   value
#>    <chr>     <int>   <dbl>
#>  1 aa            1  0.0849
#>  2 aa            2 -0.599 
#>  3 aa            3  0.275 
#>  4 aa            4 -0.233 
#>  5 aa            5  0.0862
#>  6 aa            6 -0.104 
#>  7 aa            7 -0.0301
#>  8 aa            8 -0.169 
#>  9 aa            9  0.344 
#> 10 aa           10  0.796 
#> # ℹ 116,590 more rows
…
#> A LDA_VEM topic model with 5 topics.

Per-Topic-Per-Word Probabilities

Beta Matrix
Top Terms
Code
Bar Chart

bob_topics <- tidy(bob_lda, matrix = "beta") 

bob_topics

#> # A tibble: 129,070 × 3
#>    topic term    beta
#>    <int> <chr>  <dbl>
#>  1     1 yeah  0.0180
#>  2     2 yeah  0.0179
#>  3     3 yeah  0.0191
#>  4     4 yeah  0.0173
#>  5     5 yeah  0.0181
#>  6     1 uh    0.0128
#>  7     2 uh    0.0141
#>  8     3 uh    0.0187
#>  9     4 uh    0.0158
#> 10     5 uh    0.0136
#> # ℹ 129,060 more rows

bob_top_terms <- bob_topics |> 
  group_by(topic) |> 
  slice_max(beta, n = 10) |> 
  ungroup() |> 
  arrange(topic, -beta)

bob_top_terms

#> # A tibble: 50 × 3
#>    topic term     beta
#>    <int> <chr>   <dbl>
#>  1     1 yeah  0.0180 
#>  2     1 uh    0.0128 
#>  3     1 bob   0.0120 
#>  4     1 gonna 0.0120 
#>  5     1 hey   0.00958
#>  6     1 tina  0.00891
#>  7     1 gene  0.00774
#>  8     1 god   0.00627
#>  9     1 dad   0.00615
#> 10     1 wait  0.00607
#> # ℹ 40 more rows
…
Document-topic Probabilities

Gamma Matrix
Code
Bar Chart

bob_documents <- tidy(bob_lda, matrix = "gamma")
bob_documents

#> # A tibble: 70 × 3
#>    document topic       gamma
#>    <chr>    <int>       <dbl>
#>  1 11           1 0.000000666
#>  2 12           1 0.000000668
#>  3 10           1 0.000000668
#>  4 13           1 0.000000671
#>  5 9            1 0.000000660
#>  6 4            1 0.000000741
#>  7 7            1 1.00       
#>  8 8            1 0.000000699
#>  9 3            1 1.00       
#> 10 5            1 0.00232    
#> # ℹ 60 more rows
…
books

6

Remove duplicates of The Communist Manifesto

7

Explicitly adding Engels to Communist Manifesto authorship

8

Truncating The Red Record for readability

#> # A tibble: 19,636 × 4
#>    gutenberg_id text                                                title author
#>           <int> <chr>                                               <chr> <chr> 
#>  1           61 "The Communist Manifesto"                           The … Marx,…
#>  2           61 ""                                                  The … Marx,…
#>  3           61 "by Karl Marx and Friedrich Engels"                 The … Marx,…
#>  4           61 "[From the English edition of 1888, edited by Frie… The … Marx,…
#>  5           61 "Contents"                                          The … Marx,…
#>  6           61 " I. BOURGEOIS AND PROLETARIANS"                    The … Marx,…
#>  7           61 " II. PROLETARIANS AND COMMUNISTS"                  The … Marx,…
#>  8           61 " III. SOCIALIST AND COMMUNIST LITERATURE"          The … Marx,…
#>  9           61 " IV. POSITION OF THE COMMUNISTS IN RELATION TO TH… The … Marx,…
#> 10           61 "A spectre is haunting Europe—the spectre of Commu… The … Marx,…
#> # ℹ 19,626 more rows
…
13

Creates a row_chunk index that groups observations of ~ 2000 words together

14

Combines the row_chunk indices together so each book section is about the same length

15

Combines title and row_chunk into a new variable called document, separated by _

Divide Each Book into Sections

#> # A tibble: 112 × 2
#>    document                  section                                            
#>    <chr>                     <chr>                                              
#>  1 The Communist Manifesto_1 "The Communist Manifesto by Karl Marx and Friedric…
#>  2 The Communist Manifesto_2 "powers of the nether world whom he has called up …
#>  3 The Communist Manifesto_3 "the bourgeois family-relations; modern industrial…
#>  4 The Communist Manifesto_4 "abolition of bourgeois property, the standard of …
#>  5 The Communist Manifesto_5 "and deserted with loud and irreverent laughter. O…
#>  6 The Communist Manifesto_6 "Bourgeois Socialism attains adequate expression, …
#>  7 The Red Record_1          "The Red Record: Tabulated Statistics and Alleged …
#>  8 The Red Record_2          "describe as such? Not by any means. With the Sout…
#>  9 The Red Record_3          "Va.; Nov. , Samuel Motlow, Lynchburg, Va.; Nov. ,…
#> 10 The Red Record_4          "  Ford was greatly hurt and the Negro was held to…
#> # ℹ 102 more rows

Create our Tidy Text Dataset

by_section_word <- by_section |> 
  unnest_tokens(word, section)

by_section_word

#> # A tibble: 221,458 × 2
#>    document                  word     
#>    <chr>                     <chr>    
#>  1 The Communist Manifesto_1 the      
#>  2 The Communist Manifesto_1 communist
#>  3 The Communist Manifesto_1 manifesto
#>  4 The Communist Manifesto_1 by       
#>  5 The Communist Manifesto_1 karl     
#>  6 The Communist Manifesto_1 marx     
#>  7 The Communist Manifesto_1 and      
#>  8 The Communist Manifesto_1 friedrich
#>  9 The Communist Manifesto_1 engels   
#> 10 The Communist Manifesto_1 from     
#> # ℹ 221,448 more rows
…
